EESchema Schematic File Version 4
EELAYER 30 0
EELAYER END
$Descr A4 11693 8268
encoding utf-8
Sheet 1 1
Title ""
Date ""
Rev ""
Comp ""
Comment1 ""
Comment2 ""
Comment3 ""
Comment4 ""
$EndDescr
$Comp
L MCU_Microchip_ATmega:ATmega32U4-AU U1
U 1 1 5FCC655B
P 3300 2800
F 0 "U1" H 3300 911 50  0000 C CNN
F 1 "ATmega32U4-AU" H 3300 820 50  0000 C CNN
F 2 "Package_QFP:TQFP-44_10x10mm_P0.8mm" H 3300 2800 50  0001 C CIN
F 3 "http://ww1.microchip.com/downloads/en/DeviceDoc/Atmel-7766-8-bit-AVR-ATmega16U4-32U4_Datasheet.pdf" H 3300 2800 50  0001 C CNN
	1    3300 2800
	1    0    0    -1  
$EndComp
$Comp
L power:+5V #PWR0101
U 1 1 5FCC83EF
P 3200 850
F 0 "#PWR0101" H 3200 700 50  0001 C CNN
F 1 "+5V" H 3215 1023 50  0000 C CNN
F 2 "" H 3200 850 50  0001 C CNN
F 3 "" H 3200 850 50  0001 C CNN
	1    3200 850 
	1    0    0    -1  
$EndComp
Wire Wire Line
	3200 850  3200 1000
Wire Wire Line
	3200 1000 3300 1000
Connection ~ 3200 1000
Wire Wire Line
	3300 1000 3400 1000
Connection ~ 3300 1000
$Comp
L power:GND #PWR0102
U 1 1 5FCCDA05
P 2800 4600
F 0 "#PWR0102" H 2800 4350 50  0001 C CNN
F 1 "GND" H 2805 4427 50  0000 C CNN
F 2 "" H 2800 4600 50  0001 C CNN
F 3 "" H 2800 4600 50  0001 C CNN
	1    2800 4600
	1    0    0    -1  
$EndComp
Wire Wire Line
	2800 4600 3200 4600
Wire Wire Line
	3200 4600 3300 4600
Connection ~ 3200 4600
$Comp
L Device:R_Small R4
U 1 1 5FCD32BE
P 4350 3400
F 0 "R4" V 4154 3400 50  0000 C CNN
F 1 "10K" V 4245 3400 50  0000 C CNN
F 2 "Resistor_SMD:R_0805_2012Metric" H 4350 3400 50  0001 C CNN
F 3 "~" H 4350 3400 50  0001 C CNN
	1    4350 3400
	0    1    1    0   
$EndComp
$Comp
L power:GND #PWR0103
U 1 1 5FCD3C58
P 5000 3400
F 0 "#PWR0103" H 5000 3150 50  0001 C CNN
F 1 "GND" H 5005 3227 50  0000 C CNN
F 2 "" H 5000 3400 50  0001 C CNN
F 3 "" H 5000 3400 50  0001 C CNN
	1    5000 3400
	1    0    0    -1  
$EndComp
Wire Wire Line
	3900 3400 4250 3400
Wire Wire Line
	4450 3400 5000 3400
$Comp
L Device:R_Small R2
U 1 1 5FCE557D
P 2100 2300
F 0 "R2" V 1904 2300 50  0000 C CNN
F 1 "22" V 1995 2300 50  0000 C CNN
F 2 "Resistor_SMD:R_0805_2012Metric" H 2100 2300 50  0001 C CNN
F 3 "~" H 2100 2300 50  0001 C CNN
	1    2100 2300
	0    1    1    0   
$EndComp
$Comp
L Device:R_Small R3
U 1 1 5FCE60E0
P 1900 2400
F 0 "R3" V 1704 2400 50  0000 C CNN
F 1 "22" V 1795 2400 50  0000 C CNN
F 2 "Resistor_SMD:R_0805_2012Metric" H 1900 2400 50  0001 C CNN
F 3 "~" H 1900 2400 50  0001 C CNN
	1    1900 2400
	0    1    1    0   
$EndComp
Wire Wire Line
	2700 2300 2200 2300
Wire Wire Line
	2700 2400 2000 2400
Wire Wire Line
	1800 2400 1700 2400
$Comp
L Device:C_Small C3
U 1 1 5FCE79B4
P 2000 2700
F 0 "C3" H 2092 2746 50  0000 L CNN
F 1 "1uF" H 2092 2655 50  0000 L CNN
F 2 "Capacitor_SMD:C_0805_2012Metric" H 2000 2700 50  0001 C CNN
F 3 "~" H 2000 2700 50  0001 C CNN
	1    2000 2700
	1    0    0    -1  
$EndComp
$Comp
L power:GND #PWR0104
U 1 1 5FCE825D
P 2000 3000
F 0 "#PWR0104" H 2000 2750 50  0001 C CNN
F 1 "GND" H 2005 2827 50  0000 C CNN
F 2 "" H 2000 3000 50  0001 C CNN
F 3 "" H 2000 3000 50  0001 C CNN
	1    2000 3000
	1    0    0    -1  
$EndComp
Wire Wire Line
	2700 2600 2000 2600
Wire Wire Line
	2000 2800 2000 3000
$Comp
L Device:C_Small C4
U 1 1 5FCE906D
P 1200 4000
F 0 "C4" H 1292 4046 50  0000 L CNN
F 1 "0.1uF" H 1292 3955 50  0000 L CNN
F 2 "Capacitor_SMD:C_0805_2012Metric" H 1200 4000 50  0001 C CNN
F 3 "~" H 1200 4000 50  0001 C CNN
	1    1200 4000
	1    0    0    -1  
$EndComp
$Comp
L Device:C_Small C5
U 1 1 5FCEE362
P 1600 4000
F 0 "C5" H 1692 4046 50  0000 L CNN
F 1 "0.1uF" H 1692 3955 50  0000 L CNN
F 2 "Capacitor_SMD:C_0805_2012Metric" H 1600 4000 50  0001 C CNN
F 3 "~" H 1600 4000 50  0001 C CNN
	1    1600 4000
	1    0    0    -1  
$EndComp
$Comp
L Device:C_Small C6
U 1 1 5FCEE842
P 2000 4000
F 0 "C6" H 2092 4046 50  0000 L CNN
F 1 "0.1uF" H 2092 3955 50  0000 L CNN
F 2 "Capacitor_SMD:C_0805_2012Metric" H 2000 4000 50  0001 C CNN
F 3 "~" H 2000 4000 50  0001 C CNN
	1    2000 4000
	1    0    0    -1  
$EndComp
$Comp
L Device:C_Small C7
U 1 1 5FCEEDF1
P 2400 4000
F 0 "C7" H 2492 4046 50  0000 L CNN
F 1 "10uF" H 2492 3955 50  0000 L CNN
F 2 "Capacitor_SMD:C_0805_2012Metric" H 2400 4000 50  0001 C CNN
F 3 "~" H 2400 4000 50  0001 C CNN
	1    2400 4000
	1    0    0    -1  
$EndComp
$Comp
L power:+5V #PWR0105
U 1 1 5FCEF7DB
P 1800 3800
F 0 "#PWR0105" H 1800 3650 50  0001 C CNN
F 1 "+5V" H 1815 3973 50  0000 C CNN
F 2 "" H 1800 3800 50  0001 C CNN
F 3 "" H 1800 3800 50  0001 C CNN
	1    1800 3800
	1    0    0    -1  
$EndComp
$Comp
L power:GND #PWR0106
U 1 1 5FCF023A
P 1800 4200
F 0 "#PWR0106" H 1800 3950 50  0001 C CNN
F 1 "GND" H 1805 4027 50  0000 C CNN
F 2 "" H 1800 4200 50  0001 C CNN
F 3 "" H 1800 4200 50  0001 C CNN
	1    1800 4200
	1    0    0    -1  
$EndComp
Wire Wire Line
	1200 3900 1600 3900
Wire Wire Line
	1600 3900 1800 3900
Connection ~ 1600 3900
Wire Wire Line
	2000 3900 2400 3900
Connection ~ 2000 3900
Wire Wire Line
	1200 4100 1600 4100
Connection ~ 1600 4100
Wire Wire Line
	1600 4100 1800 4100
Connection ~ 2000 4100
Wire Wire Line
	2000 4100 2400 4100
Wire Wire Line
	1800 4100 1800 4200
Connection ~ 1800 4100
Wire Wire Line
	1800 4100 2000 4100
Wire Wire Line
	1800 3900 1800 3800
Connection ~ 1800 3900
Wire Wire Line
	1800 3900 2000 3900
$Comp
L power:+5V #PWR0107
U 1 1 5FD02CD9
P 2250 2100
F 0 "#PWR0107" H 2250 1950 50  0001 C CNN
F 1 "+5V" H 2265 2273 50  0000 C CNN
F 2 "" H 2250 2100 50  0001 C CNN
F 3 "" H 2250 2100 50  0001 C CNN
	1    2250 2100
	1    0    0    -1  
$EndComp
$Comp
L Device:Crystal_GND24_Small Y1
U 1 1 5FD03E75
P 2250 1600
F 0 "Y1" V 2204 1744 50  0000 L CNN
F 1 "16Mhz" V 2295 1744 50  0000 L CNN
F 2 "Crystal:Crystal_SMD_3225-4Pin_3.2x2.5mm" H 2250 1600 50  0001 C CNN
F 3 "~" H 2250 1600 50  0001 C CNN
	1    2250 1600
	0    1    1    0   
$EndComp
Wire Wire Line
	2250 2100 2700 2100
Wire Wire Line
	2700 1500 2250 1500
Wire Wire Line
	2700 1700 2250 1700
$Comp
L Device:C_Small C2
U 1 1 5FD08174
P 1850 1800
F 0 "C2" V 1621 1800 50  0000 C CNN
F 1 "22pF" V 1712 1800 50  0000 C CNN
F 2 "Capacitor_SMD:C_0805_2012Metric" H 1850 1800 50  0001 C CNN
F 3 "~" H 1850 1800 50  0001 C CNN
	1    1850 1800
	0    1    1    0   
$EndComp
$Comp
L Device:C_Small C1
U 1 1 5FD08F6E
P 1850 1400
F 0 "C1" V 1621 1400 50  0000 C CNN
F 1 "22pF" V 1712 1400 50  0000 C CNN
F 2 "Capacitor_SMD:C_0805_2012Metric" H 1850 1400 50  0001 C CNN
F 3 "~" H 1850 1400 50  0001 C CNN
	1    1850 1400
	0    1    1    0   
$EndComp
$Comp
L power:GND #PWR0108
U 1 1 5FD09941
P 1550 1950
F 0 "#PWR0108" H 1550 1700 50  0001 C CNN
F 1 "GND" H 1555 1777 50  0000 C CNN
F 2 "" H 1550 1950 50  0001 C CNN
F 3 "" H 1550 1950 50  0001 C CNN
	1    1550 1950
	1    0    0    -1  
$EndComp
Wire Wire Line
	2250 1700 1950 1700
Wire Wire Line
	1950 1700 1950 1800
Connection ~ 2250 1700
Wire Wire Line
	2250 1500 1950 1500
Wire Wire Line
	1950 1500 1950 1400
Connection ~ 2250 1500
Wire Wire Line
	1750 1400 1550 1400
Wire Wire Line
	1550 1400 1550 1800
Wire Wire Line
	1750 1800 1550 1800
Connection ~ 1550 1800
Wire Wire Line
	1550 1800 1550 1950
Wire Wire Line
	2150 1600 2150 1850
Wire Wire Line
	2150 1950 1550 1950
Connection ~ 1550 1950
Wire Wire Line
	2350 1600 2350 1850
Wire Wire Line
	2350 1850 2150 1850
Connection ~ 2150 1850
Wire Wire Line
	2150 1850 2150 1950
$Comp
L power:GND #PWR0109
U 1 1 5FD0D65E
P 2150 1250
F 0 "#PWR0109" H 2150 1000 50  0001 C CNN
F 1 "GND" H 2155 1077 50  0000 C CNN
F 2 "" H 2150 1250 50  0001 C CNN
F 3 "" H 2150 1250 50  0001 C CNN
	1    2150 1250
	1    0    0    -1  
$EndComp
$Comp
L Switch:SW_Push SW1
U 1 1 5FD19E04
P 2450 1200
F 0 "SW1" H 2450 1485 50  0000 C CNN
F 1 "SW_Push" H 2450 1394 50  0000 C CNN
F 2 "random-keyboard-parts:SKQG-1155865" H 2450 1400 50  0001 C CNN
F 3 "~" H 2450 1400 50  0001 C CNN
	1    2450 1200
	1    0    0    -1  
$EndComp
Wire Wire Line
	2700 1300 2700 1200
Wire Wire Line
	2700 1200 2650 1200
Wire Wire Line
	2250 1200 2150 1200
Wire Wire Line
	2150 1200 2150 1250
$Comp
L power:+5V #PWR0110
U 1 1 5FD1BFF6
P 2700 850
F 0 "#PWR0110" H 2700 700 50  0001 C CNN
F 1 "+5V" H 2715 1023 50  0000 C CNN
F 2 "" H 2700 850 50  0001 C CNN
F 3 "" H 2700 850 50  0001 C CNN
	1    2700 850 
	1    0    0    -1  
$EndComp
$Comp
L Device:R_Small R1
U 1 1 5FD1C9F3
P 2700 1000
F 0 "R1" H 2759 1046 50  0000 L CNN
F 1 "10k" H 2759 955 50  0000 L CNN
F 2 "Resistor_SMD:R_0805_2012Metric" H 2700 1000 50  0001 C CNN
F 3 "~" H 2700 1000 50  0001 C CNN
	1    2700 1000
	1    0    0    -1  
$EndComp
Wire Wire Line
	2700 1200 2700 1100
Connection ~ 2700 1200
Wire Wire Line
	2700 900  2700 850 
Wire Wire Line
	2000 2300 1700 2300
Text GLabel 1700 2400 0    50   Input ~ 0
Name-
Text GLabel 1700 2300 0    50   Input ~ 0
Name+
$Comp
L random-keyboard-parts:Molex-0548190589 USB1
U 1 1 5FD29F9C
P 5250 1650
F 0 "USB1" V 5787 1617 60  0000 C CNN
F 1 "Molex-0548190589" V 5681 1617 60  0000 C CNN
F 2 "random-keyboard-parts:Molex-0548190589" H 5250 1650 60  0001 C CNN
F 3 "" H 5250 1650 60  0001 C CNN
	1    5250 1650
	0    -1   -1   0   
$EndComp
$Comp
L Device:Polyfuse_Small F1
U 1 1 5FD2B36D
P 6200 1450
F 0 "F1" V 5995 1450 50  0000 C CNN
F 1 "500mA" V 6086 1450 50  0000 C CNN
F 2 "Fuse:Fuse_1206_3216Metric" H 6250 1250 50  0001 L CNN
F 3 "~" H 6200 1450 50  0001 C CNN
	1    6200 1450
	0    1    1    0   
$EndComp
$Comp
L power:+5V #PWR0111
U 1 1 5FD2C294
P 6600 1450
F 0 "#PWR0111" H 6600 1300 50  0001 C CNN
F 1 "+5V" H 6615 1623 50  0000 C CNN
F 2 "" H 6600 1450 50  0001 C CNN
F 3 "" H 6600 1450 50  0001 C CNN
	1    6600 1450
	1    0    0    -1  
$EndComp
$Comp
L power:VCC #PWR0112
U 1 1 5FD2C7D1
P 5800 1450
F 0 "#PWR0112" H 5800 1300 50  0001 C CNN
F 1 "VCC" H 5817 1623 50  0000 C CNN
F 2 "" H 5800 1450 50  0001 C CNN
F 3 "" H 5800 1450 50  0001 C CNN
	1    5800 1450
	1    0    0    -1  
$EndComp
Wire Wire Line
	6300 1450 6600 1450
Wire Wire Line
	5800 1450 6100 1450
Text GLabel 5550 1550 2    50   Input ~ 0
Name-
Text GLabel 5550 1650 2    50   Input ~ 0
Name+
$Comp
L power:GND #PWR0113
U 1 1 5FD30E62
P 5650 1900
F 0 "#PWR0113" H 5650 1650 50  0001 C CNN
F 1 "GND" H 5655 1727 50  0000 C CNN
F 2 "" H 5650 1900 50  0001 C CNN
F 3 "" H 5650 1900 50  0001 C CNN
	1    5650 1900
	1    0    0    -1  
$EndComp
Wire Wire Line
	5550 1850 5650 1850
Wire Wire Line
	5650 1850 5650 1900
$Comp
L MX_Alps_Hybrid:MX-NoLED MX1
U 1 1 5FD32EAA
P 6150 3000
F 0 "MX1" H 6183 3223 60  0000 C CNN
F 1 "MX-NoLED" H 6183 3149 20  0000 C CNN
F 2 "Kailh_Choc:KailhChoc-1U" H 5525 2975 60  0001 C CNN
F 3 "" H 5525 2975 60  0001 C CNN
	1    6150 3000
	1    0    0    -1  
$EndComp
$Comp
L Device:D_Small D1
U 1 1 5FD33944
P 6000 3250
F 0 "D1" V 6046 3182 50  0000 R CNN
F 1 "SOD-123" V 5955 3182 50  0000 R CNN
F 2 "Diode_SMD:D_SOD-123" V 6000 3250 50  0001 C CNN
F 3 "~" V 6000 3250 50  0001 C CNN
	1    6000 3250
	0    -1   -1   0   
$EndComp
Wire Wire Line
	6100 3150 6000 3150
$Comp
L MX_Alps_Hybrid:MX-NoLED MX2
U 1 1 5FD3F4D1
P 6900 3000
F 0 "MX2" H 6933 3223 60  0000 C CNN
F 1 "MX-NoLED" H 6933 3149 20  0000 C CNN
F 2 "Kailh_Choc:KailhChoc-1U" H 6275 2975 60  0001 C CNN
F 3 "" H 6275 2975 60  0001 C CNN
	1    6900 3000
	1    0    0    -1  
$EndComp
$Comp
L Device:D_Small D2
U 1 1 5FD3F4DB
P 6750 3250
F 0 "D2" V 6796 3182 50  0000 R CNN
F 1 "SOD-123" V 6705 3182 50  0000 R CNN
F 2 "Diode_SMD:D_SOD-123" V 6750 3250 50  0001 C CNN
F 3 "~" V 6750 3250 50  0001 C CNN
	1    6750 3250
	0    -1   -1   0   
$EndComp
Wire Wire Line
	6850 3150 6750 3150
$Comp
L MX_Alps_Hybrid:MX-NoLED MX3
U 1 1 5FD41D5D
P 6150 3750
F 0 "MX3" H 6183 3973 60  0000 C CNN
F 1 "MX-NoLED" H 6183 3899 20  0000 C CNN
F 2 "Kailh_Choc:KailhChoc-1U" H 5525 3725 60  0001 C CNN
F 3 "" H 5525 3725 60  0001 C CNN
	1    6150 3750
	1    0    0    -1  
$EndComp
$Comp
L Device:D_Small D3
U 1 1 5FD41D67
P 6000 4000
F 0 "D3" V 6046 3932 50  0000 R CNN
F 1 "SOD-123" V 5955 3932 50  0000 R CNN
F 2 "Diode_SMD:D_SOD-123" V 6000 4000 50  0001 C CNN
F 3 "~" V 6000 4000 50  0001 C CNN
	1    6000 4000
	0    -1   -1   0   
$EndComp
Wire Wire Line
	6100 3900 6000 3900
$Comp
L MX_Alps_Hybrid:MX-NoLED MX4
U 1 1 5FD41D72
P 6900 3750
F 0 "MX4" H 6933 3973 60  0000 C CNN
F 1 "MX-NoLED" H 6933 3899 20  0000 C CNN
F 2 "Kailh_Choc:KailhChoc-1U" H 6275 3725 60  0001 C CNN
F 3 "" H 6275 3725 60  0001 C CNN
	1    6900 3750
	1    0    0    -1  
$EndComp
$Comp
L Device:D_Small D4
U 1 1 5FD41D7C
P 6750 4000
F 0 "D4" V 6796 3932 50  0000 R CNN
F 1 "SOD-123" V 6705 3932 50  0000 R CNN
F 2 "Diode_SMD:D_SOD-123" V 6750 4000 50  0001 C CNN
F 3 "~" V 6750 4000 50  0001 C CNN
	1    6750 4000
	0    -1   -1   0   
$EndComp
Wire Wire Line
	6850 3900 6750 3900
Wire Wire Line
	6300 3700 6300 2950
Wire Wire Line
	6750 3350 6000 3350
Wire Wire Line
	6750 4100 6000 4100
Text GLabel 7050 2600 1    50   Input ~ 0
COL1
Wire Wire Line
	7050 3700 7050 2950
Wire Wire Line
	7050 2950 7050 2600
Connection ~ 7050 2950
Text GLabel 6300 2600 1    50   Input ~ 0
COL0
Wire Wire Line
	6300 2950 6300 2600
Connection ~ 6300 2950
Wire Wire Line
	6000 3350 5700 3350
Connection ~ 6000 3350
Text GLabel 5700 3350 0    50   Input ~ 0
ROW0
Wire Wire Line
	6000 4100 5700 4100
Connection ~ 6000 4100
Text GLabel 5700 4100 0    50   Input ~ 0
ROW1
Wire Wire Line
	5550 1450 5800 1450
Connection ~ 5800 1450
$EndSCHEMATC
